{
    "data":{
        "curPage":2,
        "datas":[
            {
                "apkLink":"",
                "author":"鸿洋",
                "chapterId":410,
                "chapterName":"玉刚说",
                "collect":false,
                "courseId":13,
                "desc":"",
                "envelopePic":"",
                "fresh":false,
                "id":7604,
                "link":"https://mp.weixin.qq.com/s/cCZKmqKrdCn63eWTbOuANw",
                "niceDate":"2018-12-03",
                "origin":"",
                "projectLink":"",
                "publishTime":1543830090000,
                "superChapterId":408,
                "superChapterName":"公众号",
                "tags":[
                    {
                        "name":"公众号",
                        "url":"/wxarticle/list/410/1"
                    }
                ],
                "title":"在 Retrofit 和 OkHttp 中使用网络缓存，提高访问效率",
                "type":0,
                "userId":-1,
                "visible":1,
                "zan":0
            },
            {
                "apkLink":"",
                "author":"鸿洋",
                "chapterId":408,
                "chapterName":"鸿洋",
                "collect":false,
                "courseId":13,
                "desc":"",
                "envelopePic":"",
                "fresh":false,
                "id":7605,
                "link":"https://mp.weixin.qq.com/s/r3AWeYafyMEc1-g8BWEHBg",
                "niceDate":"2018-12-03",
                "origin":"",
                "projectLink":"",
                "publishTime":1543766400000,
                "superChapterId":408,
                "superChapterName":"公众号",
                "tags":[
                    {
                        "name":"公众号",
                        "url":"/wxarticle/list/408/1"
                    }
                ],
                "title":"非 UI 线程能调用 View.invalidate()？",
                "type":0,
                "userId":-1,
                "visible":1,
                "zan":0
            }
        ],
        "offset":20,
        "over":false,
        "pageCount":289,
        "size":20,
        "total":5779
    },
    "errorCode":0,
    "errorMsg":""
}